MAX_V_cutting_1123/MAX_V_cutting/simulation/qsim/cutting_top.msim.vcd
$comment
	File created using the following command:
		vcd file cutting_top.msim.vcd -direction
$end
$date
	Tue Nov 29 15:14:11 2022
$end
$version
	ModelSim Version 2020.1
$end
$timescale
	1ps
$end

$scope module cutting_top_vlg_vec_tst $end
$var reg 5 ! Din [4:0] $end
$var reg 1 " I $end
$var reg 1 # V $end
$var reg 1 $ clk40MHz $end
$var wire 1 % Gate_HI $end
$var wire 1 & Gate_LO $end
$var wire 1 ' T1 $end
$var wire 1 ( T2 $end
$var wire 1 ) clk_out $end

$scope module i1 $end
$var wire 1 * gnd $end
$var wire 1 + vcc $end
$var wire 1 , unknown $end
$var tri1 1 - devclrn $end
$var tri1 1 . devpor $end
$var tri1 1 / devoe $end
$var wire 1 0 setPoint[7]~20_cout $end
$var wire 1 1 Add0~40 $end
$var wire 1 2 U1|Add0~135 $end
$var wire 1 3 clk40MHz~combout $end
$var wire 1 4 Equal0~0_combout $end
$var wire 1 5 Equal0~1_combout $end
$var wire 1 6 LessThan0~0_combout $end
$var wire 1 7 LessThan0~1_combout $end
$var wire 1 8 stop~0_combout $end
$var wire 1 9 Sweep~0_combout $end
$var wire 1 : stop~1_combout $end
$var wire 1 ; stop~regout $end
$var wire 1 < cycle_d1~regout $end
$var wire 1 = cycle_d2~regout $end
$var wire 1 > cycle_d3~regout $end
$var wire 1 ? count[1]~9 $end
$var wire 1 @ count[1]~9COUT1_12 $end
$var wire 1 A count[2]~7 $end
$var wire 1 B count[2]~7COUT1_13 $end
$var wire 1 C count[3]~5 $end
$var wire 1 D count[3]~5COUT1_14 $end
$var wire 1 E count[4]~3 $end
$var wire 1 F count[4]~3COUT1_15 $end
$var wire 1 G cycle500Hz_d1~regout $end
$var wire 1 H pulse500Hz $end
$var wire 1 I pulse $end
$var wire 1 J I~combout $end
$var wire 1 K V~combout $end
$var wire 1 L XOR_IV~combout $end
$var wire 1 M sum[0]~35 $end
$var wire 1 N sum[0]~37 $end
$var wire 1 O sum[0]~37COUT1_41 $end
$var wire 1 P sum[1]~30 $end
$var wire 1 Q sum[1]~32 $end
$var wire 1 R sum[1]~32COUT1_42 $end
$var wire 1 S sum[2]~25 $end
$var wire 1 T sum[2]~27 $end
$var wire 1 U sum[2]~27COUT1_43 $end
$var wire 1 V sum[3]~20 $end
$var wire 1 W sum[3]~22 $end
$var wire 1 X sum[3]~22COUT1_44 $end
$var wire 1 Y sum[4]~15 $end
$var wire 1 Z delta[0]~17 $end
$var wire 1 [ delta[0]~17COUT1_19 $end
$var wire 1 \ delta[1]~15 $end
$var wire 1 ] delta[1]~15COUT1_20 $end
$var wire 1 ^ delta[2]~13 $end
$var wire 1 _ delta[2]~13COUT1_21 $end
$var wire 1 ` delta[3]~11 $end
$var wire 1 a delta[3]~11COUT1_22 $end
$var wire 1 b delta[4]~9 $end
$var wire 1 c sum[4]~17 $end
$var wire 1 d sum[5]~10 $end
$var wire 1 e sum[5]~12 $end
$var wire 1 f sum[5]~12COUT1_45 $end
$var wire 1 g sum[6]~5 $end
$var wire 1 h sum[6]~7 $end
$var wire 1 i sum[6]~7COUT1_46 $end
$var wire 1 j sum[7]~0 $end
$var wire 1 k delta[5]~7 $end
$var wire 1 l delta[5]~7COUT1_23 $end
$var wire 1 m delta[6]~5 $end
$var wire 1 n delta[6]~5COUT1_24 $end
$var wire 1 o delta[7]~3 $end
$var wire 1 p delta[7]~3COUT1_25 $end
$var wire 1 q Sweep~1_combout $end
$var wire 1 r Sweep~regout $end
$var wire 1 s Add0~42_cout0 $end
$var wire 1 t Add0~42COUT1_46 $end
$var wire 1 u Add0~37 $end
$var wire 1 v Add0~37COUT1_47 $end
$var wire 1 w Add0~32 $end
$var wire 1 x Add0~32COUT1_48 $end
$var wire 1 y Add0~27 $end
$var wire 1 z Add0~27COUT1_49 $end
$var wire 1 { Add0~22 $end
$var wire 1 | Add0~17 $end
$var wire 1 } Add0~17COUT1_50 $end
$var wire 1 ~ Add0~10_combout $end
$var wire 1 !! ~GND~combout $end
$var wire 1 "! setPoint[10]~25_combout $end
$var wire 1 #! Add0~15_combout $end
$var wire 1 $! Add0~20_combout $end
$var wire 1 %! Add0~25_combout $end
$var wire 1 &! Add0~30_combout $end
$var wire 1 '! Add0~35_combout $end
$var wire 1 (! setPoint[7]~20COUT0_28 $end
$var wire 1 )! setPoint[7]~20COUT1_29 $end
$var wire 1 *! setPoint[7]~17 $end
$var wire 1 +! setPoint[7]~17COUT1_30 $end
$var wire 1 ,! setPoint[8]~15 $end
$var wire 1 -! setPoint[8]~15COUT1_31 $end
$var wire 1 .! setPoint[9]~13 $end
$var wire 1 /! setPoint[9]~13COUT1_32 $end
$var wire 1 0! setPoint[10]~11 $end
$var wire 1 1! temp_accum_I[1]~75_combout $end
$var wire 1 2! temp_accum_I[1]~77 $end
$var wire 1 3! temp_accum_I[1]~77COUT1_81 $end
$var wire 1 4! temp_accum_I[2]~70_combout $end
$var wire 1 5! temp_accum_I[2]~72 $end
$var wire 1 6! temp_accum_I[2]~72COUT1_82 $end
$var wire 1 7! temp_accum_I[3]~65_combout $end
$var wire 1 8! temp_accum_I[3]~67 $end
$var wire 1 9! temp_accum_I[4]~60_combout $end
$var wire 1 :! temp_accum_I[4]~62 $end
$var wire 1 ;! temp_accum_I[4]~62COUT1_83 $end
$var wire 1 <! temp_accum_I[5]~55_combout $end
$var wire 1 =! temp_accum_I[5]~57 $end
$var wire 1 >! temp_accum_I[5]~57COUT1_84 $end
$var wire 1 ?! temp_accum_I[6]~50_combout $end
$var wire 1 @! temp_accum_I[6]~52 $end
$var wire 1 A! temp_accum_I[6]~52COUT1_85 $end
$var wire 1 B! temp_accum_I[7]~45_combout $end
$var wire 1 C! temp_accum_I[7]~47 $end
$var wire 1 D! temp_accum_I[7]~47COUT1_86 $end
$var wire 1 E! temp_accum_I[8]~40_combout $end
$var wire 1 F! temp_accum_I[8]~42 $end
$var wire 1 G! temp_accum_I[9]~35_combout $end
$var wire 1 H! temp_accum_I[9]~37 $end
$var wire 1 I! temp_accum_I[9]~37COUT1_87 $end
$var wire 1 J! temp_accum_I[10]~30_combout $end
$var wire 1 K! temp_accum_I[10]~32 $end
$var wire 1 L! temp_accum_I[10]~32COUT1_88 $end
$var wire 1 M! temp_accum_I[11]~25 $end
$var wire 1 N! temp_accum_I[11]~27 $end
$var wire 1 O! temp_accum_I[11]~27COUT1_89 $end
$var wire 1 P! temp_accum_I[12]~20_combout $end
$var wire 1 Q! temp_accum_I[12]~22 $end
$var wire 1 R! temp_accum_I[12]~22COUT1_90 $end
$var wire 1 S! temp_accum_I[13]~15 $end
$var wire 1 T! cycle500Hz_d2~regout $end
$var wire 1 U! Add7~27 $end
$var wire 1 V! Add7~27COUT1_31 $end
$var wire 1 W! Add7~22 $end
$var wire 1 X! Add7~22COUT1_32 $end
$var wire 1 Y! Add7~15_combout $end
$var wire 1 Z! U1|Add0~68_combout $end
$var wire 1 [! U1|Add0~134_combout $end
$var wire 1 \! U1|Add2~115_combout $end
$var wire 1 ]! U1|Add0~137_cout0 $end
$var wire 1 ^! U1|Add0~137COUT1_141 $end
$var wire 1 _! U1|Add0~129_combout $end
$var wire 1 `! U1|Add2~117 $end
$var wire 1 a! U1|Add2~117COUT1_121 $end
$var wire 1 b! U1|Add2~110_combout $end
$var wire 1 c! U1|Add0~128_combout $end
$var wire 1 d! U1|Add0~131 $end
$var wire 1 e! U1|Add0~123_combout $end
$var wire 1 f! U1|Add2~112 $end
$var wire 1 g! U1|Add0~116_combout $end
$var wire 1 h! U1|Add2~105_combout $end
$var wire 1 i! U1|Add0~122_combout $end
$var wire 1 j! U1|Add0~125 $end
$var wire 1 k! U1|Add0~125COUT1_142 $end
$var wire 1 l! U1|Add0~117_combout $end
$var wire 1 m! U1|Add2~107 $end
$var wire 1 n! U1|Add2~107COUT1_122 $end
$var wire 1 o! U1|Add2~100_combout $end
$var wire 1 p! U1|Add0~119 $end
$var wire 1 q! U1|Add0~119COUT1_143 $end
$var wire 1 r! U1|Add0~111_combout $end
$var wire 1 s! U1|Add2~102 $end
$var wire 1 t! U1|Add2~102COUT1_123 $end
$var wire 1 u! U1|Add2~95_combout $end
$var wire 1 v! U1|Add0~110_combout $end
$var wire 1 w! U1|Add0~113 $end
$var wire 1 x! U1|Add0~113COUT1_144 $end
$var wire 1 y! U1|Add0~105_combout $end
$var wire 1 z! U1|Add2~97 $end
$var wire 1 {! U1|Add2~97COUT1_124 $end
$var wire 1 |! U1|Add2~90_combout $end
$var wire 1 }! U1|Add0~104_combout $end
$var wire 1 ~! U1|Add0~107 $end
$var wire 1 !" U1|Add0~107COUT1_145 $end
$var wire 1 "" U1|Add0~99_combout $end
$var wire 1 #" U1|Add2~92 $end
$var wire 1 $" U1|Add2~92COUT1_125 $end
$var wire 1 %" U1|Add2~85_combout $end
$var wire 1 &" U1|Add0~98 $end
$var wire 1 '" U1|Add0~101 $end
$var wire 1 (" U1|Add0~93_combout $end
$var wire 1 )" U1|Add2~87 $end
$var wire 1 *" Add7~20_combout $end
$var wire 1 +" U1|Add0~74_combout $end
$var wire 1 ," U1|Add2~80_combout $end
$var wire 1 -" U1|Add0~92 $end
$var wire 1 ." U1|Add0~95 $end
$var wire 1 /" U1|Add0~95COUT1_146 $end
$var wire 1 0" U1|Add0~87_combout $end
$var wire 1 1" U1|Add2~82 $end
$var wire 1 2" U1|Add2~82COUT1_126 $end
$var wire 1 3" U1|Add2~75_combout $end
$var wire 1 4" U1|Add0~86_combout $end
$var wire 1 5" U1|Add0~89 $end
$var wire 1 6" U1|Add0~89COUT1_147 $end
$var wire 1 7" U1|Add0~81_combout $end
$var wire 1 8" U1|Add2~77 $end
$var wire 1 9" U1|Add2~77COUT1_127 $end
$var wire 1 :" U1|Add2~70_combout $end
$var wire 1 ;" Add7~25_combout $end
$var wire 1 <" U1|Add0~80_combout $end
$var wire 1 =" U1|Add0~83 $end
$var wire 1 >" U1|Add0~83COUT1_148 $end
$var wire 1 ?" U1|Add0~75_combout $end
$var wire 1 @" U1|Add2~72 $end
$var wire 1 A" U1|Add2~72COUT1_128 $end
$var wire 1 B" U1|Add2~65_combout $end
$var wire 1 C" U1|Add0~77 $end
$var wire 1 D" U1|Add0~77COUT1_149 $end
$var wire 1 E" U1|Add0~69_combout $end
$var wire 1 F" U1|Add2~67 $end
$var wire 1 G" U1|Add2~67COUT1_129 $end
$var wire 1 H" U1|Add2~60_combout $end
$var wire 1 I" U1|Add0~71 $end
$var wire 1 J" U1|Add0~63_combout $end
$var wire 1 K" U1|Add2~62 $end
$var wire 1 L" U1|Add2~55_combout $end
$var wire 1 M" Add0~12 $end
$var wire 1 N" Add0~12COUT1_51 $end
$var wire 1 O" Add0~5_combout $end
$var wire 1 P" setPoint[11]~9 $end
$var wire 1 Q" setPoint[11]~9COUT1_33 $end
$var wire 1 R" temp_accum_I[13]~17 $end
$var wire 1 S" temp_accum_I[14]~10_combout $end
$var wire 1 T" Add7~17 $end
$var wire 1 U" Add7~17COUT1_33 $end
$var wire 1 V" Add7~10_combout $end
$var wire 1 W" U1|Add0~62_combout $end
$var wire 1 X" U1|Add0~65 $end
$var wire 1 Y" U1|Add0~65COUT1_150 $end
$var wire 1 Z" U1|Add0~57_combout $end
$var wire 1 [" U1|Add2~57 $end
$var wire 1 \" U1|Add2~57COUT1_130 $end
$var wire 1 ]" U1|Add2~50_combout $end
$var wire 1 ^" Add0~7 $end
$var wire 1 _" Add0~7COUT1_52 $end
$var wire 1 `" Add0~0_combout $end
$var wire 1 a" setPoint[12]~7 $end
$var wire 1 b" setPoint[12]~7COUT1_34 $end
$var wire 1 c" temp_accum_I[14]~12 $end
$var wire 1 d" temp_accum_I[14]~12COUT1_91 $end
$var wire 1 e" temp_accum_I[15]~5_combout $end
$var wire 1 f" Add7~12 $end
$var wire 1 g" Add7~5_combout $end
$var wire 1 h" U1|Add0~56_combout $end
$var wire 1 i" U1|Add0~59 $end
$var wire 1 j" U1|Add0~59COUT1_151 $end
$var wire 1 k" U1|Add0~51_combout $end
$var wire 1 l" U1|Add2~52 $end
$var wire 1 m" U1|Add2~52COUT1_131 $end
$var wire 1 n" U1|Add2~45_combout $end
$var wire 1 o" setPoint[13]~5 $end
$var wire 1 p" setPoint[13]~5COUT1_35 $end
$var wire 1 q" temp_accum_I[15]~7 $end
$var wire 1 r" temp_accum_I[15]~7COUT1_92 $end
$var wire 1 s" temp_accum_I[16]~0 $end
$var wire 1 t" Add7~7 $end
$var wire 1 u" Add7~7COUT1_34 $end
$var wire 1 v" Add7~0_combout $end
$var wire 1 w" U1|Add0~50_combout $end
$var wire 1 x" U1|Add0~53 $end
$var wire 1 y" U1|Add0~53COUT1_152 $end
$var wire 1 z" U1|Add0~45_combout $end
$var wire 1 {" U1|Add2~47 $end
$var wire 1 |" U1|Add2~47COUT1_132 $end
$var wire 1 }" U1|Add2~40_combout $end
$var wire 1 ~" U1|Add0~47 $end
$var wire 1 !# U1|Add0~47COUT1_153 $end
$var wire 1 "# U1|Add0~40_combout $end
$var wire 1 ## U1|Add2~42 $end
$var wire 1 $# U1|Add2~42COUT1_133 $end
$var wire 1 %# U1|Add2~35_combout $end
$var wire 1 &# U1|Add0~42 $end
$var wire 1 '# U1|Add0~35_combout $end
$var wire 1 (# U1|Add2~37 $end
$var wire 1 )# U1|Add2~30_combout $end
$var wire 1 *# U1|Add0~37 $end
$var wire 1 +# U1|Add0~37COUT1_154 $end
$var wire 1 ,# U1|Add0~30_combout $end
$var wire 1 -# U1|Add2~32 $end
$var wire 1 .# U1|Add2~32COUT1_134 $end
$var wire 1 /# U1|Add2~25_combout $end
$var wire 1 0# U1|Add0~32 $end
$var wire 1 1# U1|Add0~32COUT1_155 $end
$var wire 1 2# U1|Add0~25_combout $end
$var wire 1 3# U1|Add2~27 $end
$var wire 1 4# U1|Add2~27COUT1_135 $end
$var wire 1 5# U1|Add2~20_combout $end
$var wire 1 6# U1|Add0~27 $end
$var wire 1 7# U1|Add0~27COUT1_156 $end
$var wire 1 8# U1|Add0~20_combout $end
$var wire 1 9# U1|Add2~22 $end
$var wire 1 :# U1|Add2~22COUT1_136 $end
$var wire 1 ;# U1|Add2~15_combout $end
$var wire 1 <# U1|Add0~22 $end
$var wire 1 =# U1|Add0~22COUT1_157 $end
$var wire 1 ># U1|Add0~15_combout $end
$var wire 1 ?# U1|Add2~17 $end
$var wire 1 @# U1|Add2~17COUT1_137 $end
$var wire 1 A# U1|Add2~10_combout $end
$var wire 1 B# U1|Add0~17 $end
$var wire 1 C# U1|Add0~10_combout $end
$var wire 1 D# U1|Add2~12 $end
$var wire 1 E# U1|Add2~5_combout $end
$var wire 1 F# U1|Add0~12 $end
$var wire 1 G# U1|Add0~12COUT1_158 $end
$var wire 1 H# U1|Add0~5_combout $end
$var wire 1 I# U1|Add2~7 $end
$var wire 1 J# U1|Add2~7COUT1_138 $end
$var wire 1 K# U1|Add2~0_combout $end
$var wire 1 L# U1|Add0~7 $end
$var wire 1 M# U1|Add0~7COUT1_159 $end
$var wire 1 N# U1|Add0~0_combout $end
$var wire 1 O# U1|up_count~regout $end
$var wire 1 P# U1|out~regout $end
$var wire 1 Q# Gate_HI~0_combout $end
$var wire 1 R# Gate_LO~0_combout $end
$var wire 1 S# Din~combout [4] $end
$var wire 1 T# Din~combout [3] $end
$var wire 1 U# Din~combout [2] $end
$var wire 1 V# Din~combout [1] $end
$var wire 1 W# Din~combout [0] $end
$var wire 1 X# count [5] $end
$var wire 1 Y# count [4] $end
$var wire 1 Z# count [3] $end
$var wire 1 [# count [2] $end
$var wire 1 \# count [1] $end
$var wire 1 ]# count [0] $end
$var wire 1 ^# U1|count [23] $end
$var wire 1 _# U1|count [22] $end
$var wire 1 `# U1|count [21] $end
$var wire 1 a# U1|count [20] $end
$var wire 1 b# U1|count [19] $end
$var wire 1 c# U1|count [18] $end
$var wire 1 d# U1|count [17] $end
$var wire 1 e# U1|count [16] $end
$var wire 1 f# U1|count [15] $end
$var wire 1 g# U1|count [14] $end
$var wire 1 h# U1|count [13] $end
$var wire 1 i# U1|count [12] $end
$var wire 1 j# U1|count [11] $end
$var wire 1 k# U1|count [10] $end
$var wire 1 l# U1|count [9] $end
$var wire 1 m# U1|count [8] $end
$var wire 1 n# U1|count [7] $end
$var wire 1 o# U1|count [6] $end
$var wire 1 p# U1|count [5] $end
$var wire 1 q# U1|count [4] $end
$var wire 1 r# U1|count [3] $end
$var wire 1 s# U1|count [2] $end
$var wire 1 t# U1|count [1] $end
$var wire 1 u# U1|count [0] $end
$var wire 1 v# PI_control [14] $end
$var wire 1 w# PI_control [13] $end
$var wire 1 x# PI_control [12] $end
$var wire 1 y# PI_control [11] $end
$var wire 1 z# PI_control [10] $end
$var wire 1 {# PI_control [9] $end
$var wire 1 |# PI_control [8] $end
$var wire 1 }# PI_control [7] $end
$var wire 1 ~# PI_control [6] $end
$var wire 1 !$ PI_control [5] $end
$var wire 1 "$ PI_control [4] $end
$var wire 1 #$ PI_control [3] $end
$var wire 1 $$ PI_control [2] $end
$var wire 1 %$ PI_control [1] $end
$var wire 1 &$ PI_control [0] $end
$var wire 1 '$ setPoint [14] $end
$var wire 1 ($ setPoint [13] $end
$var wire 1 )$ setPoint [12] $end
$var wire 1 *$ setPoint [11] $end
$var wire 1 +$ setPoint [10] $end
$var wire 1 ,$ setPoint [9] $end
$var wire 1 -$ setPoint [8] $end
$var wire 1 .$ setPoint [7] $end
$var wire 1 /$ setPoint [6] $end
$var wire 1 0$ setPoint [5] $end
$var wire 1 1$ setPoint [4] $end
$var wire 1 2$ setPoint [3] $end
$var wire 1 3$ setPoint [2] $end
$var wire 1 4$ setPoint [1] $end
$var wire 1 5$ setPoint [0] $end
$var wire 1 6$ delta [8] $end
$var wire 1 7$ delta [7] $end
$var wire 1 8$ delta [6] $end
$var wire 1 9$ delta [5] $end
$var wire 1 :$ delta [4] $end
$var wire 1 ;$ delta [3] $end
$var wire 1 <$ delta [2] $end
$var wire 1 =$ delta [1] $end
$var wire 1 >$ delta [0] $end
$var wire 1 ?$ accum_I [16] $end
$var wire 1 @$ accum_I [15] $end
$var wire 1 A$ accum_I [14] $end
$var wire 1 B$ accum_I [13] $end
$var wire 1 C$ accum_I [12] $end
$var wire 1 D$ accum_I [11] $end
$var wire 1 E$ accum_I [10] $end
$var wire 1 F$ accum_I [9] $end
$var wire 1 G$ accum_I [8] $end
$var wire 1 H$ accum_I [7] $end
$var wire 1 I$ accum_I [6] $end
$var wire 1 J$ accum_I [5] $end
$var wire 1 K$ accum_I [4] $end
$var wire 1 L$ accum_I [3] $end
$var wire 1 M$ accum_I [2] $end
$var wire 1 N$ accum_I [1] $end
$var wire 1 O$ accum_I [0] $end
$var wire 1 P$ theta_past [7] $end
$var wire 1 Q$ theta_past [6] $end
$var wire 1 R$ theta_past [5] $end
$var wire 1 S$ theta_past [4] $end
$var wire 1 T$ theta_past [3] $end
$var wire 1 U$ theta_past [2] $end
$var wire 1 V$ theta_past [1] $end
$var wire 1 W$ theta_past [0] $end
$var wire 1 X$ cnt [2] $end
$var wire 1 Y$ cnt [1] $end
$var wire 1 Z$ cnt [0] $end
$var wire 1 [$ abs_theta [7] $end
$var wire 1 \$ abs_theta [6] $end
$var wire 1 ]$ abs_theta [5] $end
$var wire 1 ^$ abs_theta [4] $end
$var wire 1 _$ abs_theta [3] $end
$var wire 1 `$ abs_theta [2] $end
$var wire 1 a$ abs_theta [1] $end
$var wire 1 b$ abs_theta [0] $end
$var wire 1 c$ accum [7] $end
$var wire 1 d$ accum [6] $end
$var wire 1 e$ accum [5] $end
$var wire 1 f$ accum [4] $end
$var wire 1 g$ accum [3] $end
$var wire 1 h$ accum [2] $end
$var wire 1 i$ accum [1] $end
$var wire 1 j$ accum [0] $end
$upscope $end
$upscope $end
$enddefinitions $end
#0
$dumpvars
b11001 !
x"
x#
0$
0%
1&
1'
0(
0)
0*
1+
x,
1-
1.
1/
10
11
12
03
14
05
16
17
08
19
1:
0;
0<
0=
0>
0?
0@
1A
1B
0C
0D
1E
1F
0G
0H
0I
xJ
xK
xL
xM
0N
0O
0P
1Q
1R
0S
0T
0U
0V
1W
1X
0Y
1Z
1[
0\
0]
1^
1_
0`
0a
1b
0c
0d
1e
1f
0g
0h
0i
0j
1k
0l
0m
1n
1o
0p
0q
0r
0s
0t
1u
1v
0w
0x
1y
1z
0{
1|
0}
0~
0!!
1"!
1#!
0$!
1%!
1&!
1'!
1(!
1)!
0*!
0+!
1,!
1-!
1.!
1/!
00!
01!
02!
03!
04!
15!
16!
07!
08!
09!
1:!
1;!
0<!
0=!
0>!
0?!
1@!
1A!
0B!
0C!
0D!
0E!
1F!
0G!
0H!
0I!
0J!
1K!
1L!
0M!
0N!
0O!
0P!
1Q!
1R!
0S!
0T!
0U!
0V!
1W!
1X!
0Y!
0Z!
1[!
0\!
0]!
0^!
1_!
1`!
1a!
1b!
1c!
1d!
1e!
0f!
1g!
1h!
1i!
1j!
0k!
1l!
1m!
1n!
1o!
0p!
1q!
1r!
0s!
0t!
1u!
1v!
1w!
0x!
1y!
1z!
1{!
1|!
1}!
0~!
1!"
1""
0#"
0$"
0%"
0&"
0'"
0("
1)"
1*"
1+"
0,"
0-"
1."
1/"
00"
11"
02"
13"
14"
05"
06"
17"
18"
19"
0:"
0;"
0<"
1="
1>"
0?"
0@"
0A"
1B"
0C"
0D"
1E"
1F"
1G"
0H"
1I"
0J"
0K"
1L"
1M"
1N"
1O"
1P"
1Q"
0R"
0S"
0T"
0U"
1V"
1W"
0X"
0Y"
1Z"
1["
1\"
1]"
0^"
0_"
0`"
1a"
1b"
1c"
1d"
0e"
1f"
1g"
1h"
1i"
1j"
1k"
0l"
0m"
0n"
0o"
0p"
0q"
0r"
0s"
1t"
0u"
0v"
0w"
0x"
0y"
0z"
1{"
1|"
0}"
1~"
1!#
0"#
0##
0$#
0%#
0&#
0'#
1(#
0)#
1*#
1+#
0,#
1-#
0.#
0/#
00#
01#
02#
03#
14#
05#
16#
17#
08#
19#
0:#
0;#
0<#
0=#
0>#
0?#
1@#
0A#
1B#
0C#
0D#
0E#
0F#
0G#
0H#
1I#
0J#
1K#
1L#
1M#
0N#
0O#
0P#
0Q#
0R#
1W#
0V#
0U#
1T#
1S#
0]#
0\#
0[#
0Z#
0Y#
0X#
0u#
0t#
0s#
0r#
0q#
0p#
0o#
0n#
0m#
0l#
0k#
0j#
0i#
0h#
0g#
0f#
0e#
0d#
0c#
0b#
0a#
0`#
0_#
0^#
0&$
0%$
0$$
0#$
0"$
0!$
0~#
0}#
0|#
0{#
0z#
0y#
0x#
0w#
0v#
z5$
z4$
z3$
z2$
z1$
00$
0/$
0.$
0-$
0,$
0+$
0*$
0)$
0($
0'$
0>$
0=$
0<$
0;$
0:$
09$
08$
07$
06$
zO$
0N$
0M$
0L$
0K$
0J$
0I$
0H$
0G$
0F$
0E$
0D$
0C$
0B$
0A$
0@$
0?$
0W$
0V$
0U$
0T$
0S$
0R$
0Q$
0P$
0Z$
0Y$
0X$
0b$
0a$
0`$
0_$
0^$
0]$
0\$
0[$
0j$
0i$
0h$
0g$
0f$
0e$
0d$
0c$
$end
#5000
1$
13
1)
1P#
1($
1h#
1)$
1i#
1k#
1m#
1p#
1q#
1r#
1s#
1t#
1u#
10$
1.$
1r
1;
1R#
1y"
1x"
0k"
0j"
0i"
0Z"
0I"
0E"
0>"
0="
07"
1'"
0""
0!"
0y!
1x!
0r!
0q!
0l!
1k!
0e!
0d!
0_!
1-"
04"
0+"
0v!
0c!
0[!
1z"
0]"
1k"
0\"
0L"
1J"
0B"
1?"
08"
03"
1I"
1E"
1>"
1="
17"
10"
1("
0|!
1""
0u!
0o!
1r!
0n!
0h!
1l!
0b!
0k!
0a!
0`!
1\!
1d!
1_!
0&
1n"
1]"
1H"
1:"
0J"
1B"
0?"
18"
13"
01"
1,"
1%"
1|!
1o!
1n!
1h!
0l!
1f!
1b!
1e!
1a!
1`!
0\!
0H"
0:"
0n!
0f!
0h!
#10000
0$
03
0)
1Z$
#15000
1$
13
1)
1g#
0i#
1n#
1o#
0q#
0s#
0!#
0~"
0z"
1j"
1i"
1Z"
16"
15"
00"
0/"
0("
1!"
1~!
1y!
1q!
1l!
1"#
0n"
0k"
1\"
1L"
0>"
0="
07"
11"
0,"
10"
0%"
0""
1u!
0r!
1n!
1h!
1}"
0]"
1?"
08"
03"
01"
1,"
0|!
0o!
1:"
18"
#20000
0$
03
0)
1Y$
0Z$
#25000
1$
13
1)
1f#
0g#
0h#
1i#
1l#
0m#
0o#
0p#
1q#
0r#
1s#
1&#
0"#
1!#
1~"
1z"
0y"
0x"
1k"
0j"
0i"
0Z"
1D"
1C"
0?"
1>"
1="
17"
1/"
1("
0'"
1""
0!"
0~!
0y!
0x!
1r!
0q!
0l!
1'#
0}"
0&#
1"#
1n"
0z"
1]"
1y"
1x"
0k"
0\"
0L"
0I"
0E"
0:"
0D"
0C"
1?"
13"
00"
1%"
0("
1|!
1'"
0""
0u!
1!"
1y!
1o!
1x!
0r!
0n!
0h!
1%#
0'#
1}"
0n"
1z"
1m"
0]"
1J"
0B"
1I"
1E"
1:"
11"
0,"
0%"
1("
0|!
0'"
1""
1u!
0!"
0y!
1t!
0o!
0%#
1n"
1H"
0J"
1B"
1%"
0("
1|!
1'"
0""
0{!
0u!
0H"
0%"
1("
1$"
0|!
1%"
#30000
0$
03
0)
1Z$
#35000
1$
13
1)
1g#
0i#
1m#
0n#
1o#
0q#
0s#
0!#
0~"
0z"
1j"
1i"
1Z"
0>"
0="
07"
06"
05"
10"
0/"
0("
1!"
1~!
1y!
1q!
1l!
1&#
0"#
0|"
0n"
0y"
0x"
1k"
1\"
1L"
1D"
1C"
0?"
08"
03"
1>"
1="
17"
01"
1,"
16"
00"
0%"
0'"
1""
1{!
1u!
0x!
1r!
1n!
1h!
1'#
1$#
0}"
1!#
1~"
1z"
0m"
1]"
0I"
0E"
1@"
0:"
0D"
0C"
1?"
18"
13"
0>"
11"
0,"
10"
1("
0$"
1|!
0y!
0t!
1o!
1%#
0&#
1"#
1|"
1n"
1J"
0F"
0B"
1I"
1E"
0@"
1:"
1D"
01"
1,"
1%"
0u!
0'#
0$#
1}"
1H"
0J"
1F"
1B"
0%#
0H"
#40000
0$
03
0)
1X$
0Y$
0Z$
xj$
xO
xN
xP
#45000
1$
13
1)
1h#
1i#
1n#
1p#
1r#
1s#
1y"
1x"
0k"
0j"
0i"
0Z"
15"
00"
1'"
0""
1x!
0r!
0q!
0l!
0!#
0~"
0z"
0]"
1k"
0\"
0L"
0="
07"
11"
0,"
0I"
0E"
0?"
10"
0("
0|!
1y!
0o!
1r!
0n!
0h!
1&#
0"#
0n"
1]"
1C"
08"
03"
1J"
0B"
0:"
01"
1,"
0%"
1u!
1o!
1'#
0}"
1@"
1H"
18"
1%#
0F"
0@"
1F"
#50000
0$
03
0)
1Z$
#55000
1$
13
1)
1e#
0f#
0g#
0i#
1j#
0k#
0l#
0m#
0o#
0p#
1q#
0s#
0+#
0'#
0&#
1"#
1!#
1~"
1z"
1j"
1i"
1Z"
1X"
0J"
1I"
1E"
0D"
0C"
1?"
1>"
1="
17"
1/"
1("
0'"
1""
0!"
0~!
0y!
1q!
1l!
0%#
1'#
1}"
0"#
1n"
0k"
1\"
1L"
0i"
0H"
1J"
1B"
0E"
1:"
0?"
13"
00"
1%"
0("
1|!
1'"
0""
0u!
0r!
1n!
1h!
1%#
0}"
0]"
1H"
0B"
0:"
11"
0,"
0%"
1("
0|!
0o!
1%"
#60000
b10001 !
b10101 !
0$
1U#
0T#
03
0|
0#!
0&!
09
15
0M"
1~
0z
0y
0%!
0)
1M"
0~
0"!
1q
0:
0O"
0Q"
1$!
0-!
0,!
1O"
1Q"
0a"
1a"
1o"
0o"
1Y$
0Z$
#65000
1$
13
1)
1g#
0h#
1i#
1m#
0n#
1o#
0q#
0r#
1s#
0;
0!#
0~"
0z"
0y"
1k"
0j"
0Z"
0>"
0="
07"
06"
05"
10"
0/"
0("
1!"
1~!
1y!
0x!
1r!
0q!
0l!
1Q#
1"#
0n"
1!#
1z"
1]"
1y"
0k"
0\"
0L"
1?"
08"
03"
1>"
1="
17"
01"
1,"
16"
00"
0%"
0'"
1""
1u!
0y!
1o!
1x!
0r!
0n!
0h!
1%
1}"
0"#
1n"
0!#
0z"
1m"
0]"
1:"
0?"
18"
13"
0>"
11"
0,"
10"
1("
1|!
0u!
1y!
1t!
0o!
0}"
1"#
0|"
0n"
0:"
01"
1,"
1%"
1u!
1}"
#70000
0$
03
0)
1Z$
#75000
1$
13
1)
1f#
0g#
0i#
1n#
1p#
1q#
0s#
1&#
0"#
1!#
1~"
1z"
1j"
1Z"
15"
00"
1'"
0""
0!"
0~!
0y!
1q!
1l!
1,#
0'#
1$#
0}"
0&#
1"#
1|"
1n"
0y"
1k"
1\"
1L"
0="
07"
11"
0,"
1?"
10"
0("
0|!
1""
0{!
0u!
0x!
1r!
1n!
1h!
0-#
1)#
0%#
0,#
1'#
0$#
1}"
0z"
0m"
1]"
08"
03"
1:"
01"
1,"
0%"
1|!
1!"
1y!
0t!
1o!
13#
1-#
0)#
1%#
0n"
18"
0""
1{!
1u!
09#
03#
0|!
1?#
19#
0?#
#80000
0$
03
0)
0X$
0Y$
0Z$
1<
1I
