UC_CUT_2SD_1123/simulation/qsim/UC_rx.msim.vcd
$comment
	File created using the following command:
		vcd file UC_rx.msim.vcd -direction
$end
$date
	Thu Sep 29 16:37:06 2022
$end
$version
	ModelSim Version 2020.1
$end
$timescale
	1ps
$end

$scope module UC_rx_vlg_vec_tst $end
$var reg 1 ! clk $end
$var reg 1 " set $end
$var wire 1 # fre_count [4] $end
$var wire 1 $ fre_count [3] $end
$var wire 1 % fre_count [2] $end
$var wire 1 & fre_count [1] $end
$var wire 1 ' fre_count [0] $end
$var wire 1 ( out [4] $end
$var wire 1 ) out [3] $end
$var wire 1 * out [2] $end
$var wire 1 + out [1] $end
$var wire 1 , out [0] $end

$scope module i1 $end
$var wire 1 - gnd $end
$var wire 1 . vcc $end
$var wire 1 / unknown $end
$var tri1 1 0 devclrn $end
$var tri1 1 1 devpor $end
$var tri1 1 2 devoe $end
$var wire 1 3 clk~combout $end
$var wire 1 4 fre_count[0]~reg0_regout $end
$var wire 1 5 fre_count[0]~1 $end
$var wire 1 6 fre_count[0]~1COUT1_11 $end
$var wire 1 7 fre_count[1]~reg0_regout $end
$var wire 1 8 fre_count[1]~3 $end
$var wire 1 9 fre_count[1]~3COUT1_12 $end
$var wire 1 : fre_count[2]~reg0_regout $end
$var wire 1 ; fre_count[2]~5 $end
$var wire 1 < fre_count[2]~5COUT1_13 $end
$var wire 1 = fre_count[3]~7 $end
$var wire 1 > fre_count[3]~7COUT1_14 $end
$var wire 1 ? fre_count[4]~reg0_regout $end
$var wire 1 @ LessThan0~0_combout $end
$var wire 1 A LessThan0~1_combout $end
$var wire 1 B fre_count[3]~reg0_regout $end
$var wire 1 C out[0]~reg0_regout $end
$var wire 1 D WideOr3~0_combout $end
$var wire 1 E out[1]~reg0_regout $end
$var wire 1 F WideOr2~1_combout $end
$var wire 1 G WideOr2~0_combout $end
$var wire 1 H out[2]~reg0_regout $end
$var wire 1 I WideOr1~0_combout $end
$var wire 1 J out[3]~reg0_regout $end
$var wire 1 K WideOr0~0_combout $end
$var wire 1 L out[4]~reg0_regout $end
$upscope $end
$upscope $end
$enddefinitions $end
#0
$dumpvars
0!
x"
0'
0&
0%
0$
0#
0,
0+
0*
0)
0(
0-
1.
x/
10
11
12
03
04
05
06
07
18
19
0:
0;
0<
1=
1>
0?
0@
0A
0B
0C
0D
0E
0F
0G
0H
0I
0J
0K
0L
$end
#5000
1!
13
1C
14
1D
1@
16
15
1,
1'
#10000
0!
03
#15000
1!
13
1E
0C
17
04
09
08
06
05
1+
0,
1&
0'
19
18
#20000
0!
03
#25000
1!
13
1C
14
1G
1F
0D
16
15
1,
1'
09
08
#30000
0!
03
#35000
1!
13
1H
0E
0C
1:
07
04
1K
1<
1;
0F
0@
19
18
06
05
1*
0+
0,
1%
0&
0'
0<
0;
#40000
0!
03
#45000
1!
13
1C
14
0G
1@
16
15
1,
1'
#50000
0!
03
#55000
1!
13
1E
0C
17
04
09
08
06
05
1+
0,
1&
0'
1<
1;
19
18
0<
0;
#60000
0!
03
#65000
1!
13
1C
14
1I
1F
16
15
1,
1'
09
08
1<
1;
#70000
0!
03
#75000
1!
13
1J
0H
0E
0C
1B
0:
07
04
0>
0=
0K
0<
0;
0F
0@
19
18
06
05
1)
0*
0+
0,
1$
0%
0&
0'
1>
1=
#80000
0!
03
#85000
1!
13
1C
14
1@
16
15
1,
1'
#90000
0!
03
#95000
1!
13
1E
0C
17
04
09
08
06
05
1+
0,
1&
0'
19
18
#100000
0!
03
#105000
1!
13
1C
14
1F
16
15
1,
1'
09
08
#110000
0!
03
#115000
1!
13
1H
0E
0C
1:
07
04
1K
1<
1;
0F
0@
19
18
06
05
1*
0+
0,
1%
0&
0'
0>
0=
0<
0;
1>
1=
#120000
0!
03
#125000
1!
13
1C
14
1@
16
15
1,
1'
#130000
0!
03
#135000
1!
13
1E
0C
17
04
09
08
06
05
1+
0,
1&
0'
1<
1;
19
18
0>
0=
0<
0;
1>
1=
#140000
0!
03
#145000
1!
13
1C
14
0I
1F
16
15
1,
1'
09
08
1<
1;
0>
0=
#150000
0!
03
#155000
1!
13
1L
0J
0H
0E
0C
1?
0B
0:
07
04
0K
1>
1=
0<
0;
0F
0@
19
18
06
05
1(
0)
0*
0+
0,
1#
0$
0%
0&
0'
#160000
0!
03
#165000
1!
13
1C
14
1D
1@
16
15
1,
1'
#170000
0!
03
#175000
1!
13
1E
0C
17
04
09
08
06
05
1+
0,
1&
0'
19
18
#180000
0!
03
#185000
1!
13
1C
14
1G
1F
0D
16
15
1,
1'
09
08
#190000
0!
03
#195000
1!
13
1H
0E
0C
1:
07
04
1A
1<
1;
0F
0@
19
18
06
05
1*
0+
0,
1%
0&
0'
0A
0<
0;
#200000
0!
03
#205000
1!
13
1C
14
1K
0G
1@
16
15
1,
1'
1A
#210000
0!
03
#215000
1!
13
0L
0H
0?
0:
04
0K
0A
0@
06
05
0(
0*
0#
0%
0'
#220000
0!
03
#225000
1!
13
14
1D
1@
16
15
1'
#230000
0!
03
#235000
1!
13
1E
0C
17
04
09
08
06
05
1+
0,
1&
0'
19
18
#240000
0!
03
#245000
1!
13
1C
14
1G
1F
0D
16
15
1,
1'
09
08
#250000
0!
03
#255000
1!
13
1H
0E
0C
1:
07
04
1K
1<
1;
0F
0@
19
18
06
05
1*
0+
0,
1%
0&
0'
0<
0;
#260000
0!
03
#265000
1!
13
1C
14
0G
1@
16
15
1,
1'
#270000
0!
03
#275000
1!
13
1E
0C
17
04
09
08
06
05
1+
0,
1&
0'
1<
1;
19
18
0<
0;
#280000
0!
03
#285000
1!
13
1C
14
1I
1F
16
15
1,
1'
09
08
1<
1;
#290000
0!
03
#295000
1!
13
1J
0H
0E
0C
1B
0:
07
04
0>
0=
0K
0<
0;
0F
0@
19
18
06
05
1)
0*
0+
0,
1$
0%
0&
0'
1>
1=
#300000
0!
03
#305000
1!
13
1C
14
1@
16
15
1,
1'
#310000
0!
03
#315000
1!
13
1E
0C
17
04
09
08
06
05
1+
0,
1&
0'
19
18
#320000
0!
03
#325000
1!
13
1C
14
1F
16
15
1,
1'
09
08
#330000
0!
03
#335000
1!
13
1H
0E
0C
1:
07
04
1K
1<
1;
0F
0@
19
18
06
05
1*
0+
0,
1%
0&
0'
0>
0=
0<
0;
1>
1=
#340000
0!
03
#345000
1!
13
1C
14
1@
16
15
1,
1'
#350000
0!
03
#355000
1!
13
1E
0C
17
04
09
08
06
05
1+
0,
1&
0'
1<
1;
19
18
0>
0=
0<
0;
1>
1=
#360000
0!
03
#365000
1!
13
1C
14
0I
1F
16
15
1,
1'
09
08
1<
1;
0>
0=
#370000
0!
03
#375000
1!
13
1L
0J
0H
0E
0C
1?
0B
0:
07
04
0K
1>
1=
0<
0;
0F
0@
19
18
06
05
1(
0)
0*
0+
0,
1#
0$
0%
0&
0'
#380000
0!
03
#385000
1!
13
1C
14
1D
1@
16
15
1,
1'
#390000
0!
03
#395000
1!
13
1E
0C
17
04
09
08
06
05
1+
0,
1&
0'
19
18
#400000
0!
03
#405000
1!
13
1C
14
1G
1F
0D
16
15
1,
1'
09
08
#410000
0!
03
#415000
1!
13
1H
0E
0C
1:
07
04
1A
1<
1;
0F
0@
19
18
06
05
1*
0+
0,
1%
0&
0'
0A
0<
0;
#420000
0!
03
#425000
1!
13
1C
14
1K
0G
1@
16
15
1,
1'
1A
#430000
0!
03
#435000
1!
13
0L
0H
0?
0:
04
0K
0A
0@
06
05
0(
0*
0#
0%
0'
#440000
0!
03
#445000
1!
13
14
1D
1@
16
15
1'
#450000
0!
03
#455000
1!
13
1E
0C
17
04
09
08
06
05
1+
0,
1&
0'
19
18
#460000
0!
03
#465000
1!
13
1C
14
1G
1F
0D
16
15
1,
1'
09
08
#470000
0!
03
#475000
1!
13
1H
0E
0C
1:
07
04
1K
1<
1;
0F
0@
19
18
06
05
1*
0+
0,
1%
0&
0'
0<
0;
#480000
0!
03
#485000
1!
13
1C
14
0G
1@
16
15
1,
1'
#490000
0!
03
#495000
1!
13
1E
0C
17
04
09
08
06
05
1+
0,
1&
0'
1<
1;
19
18
0<
0;
#500000
0!
03
#505000
1!
13
1C
14
1I
1F
16
15
1,
1'
09
08
1<
1;
#510000
0!
03
#515000
1!
13
1J
0H
0E
0C
1B
0:
07
04
0>
0=
0K
0<
0;
0F
0@
19
18
06
05
1)
0*
0+
0,
1$
0%
0&
0'
1>
1=
#520000
0!
03
#525000
1!
13
1C
14
1@
16
15
1,
1'
#530000
0!
03
#535000
1!
13
1E
0C
17
04
09
08
06
05
1+
0,
1&
0'
19
18
#540000
0!
03
#545000
1!
13
1C
14
1F
16
15
1,
1'
09
08
#550000
0!
03
#555000
1!
13
1H
0E
0C
1:
07
04
1K
1<
1;
0F
0@
19
18
06
05
1*
0+
0,
1%
0&
0'
0>
0=
0<
0;
1>
1=
#560000
0!
03
#565000
1!
13
1C
14
1@
16
15
1,
1'
#570000
0!
03
#575000
1!
13
1E
0C
17
04
09
08
06
05
1+
0,
1&
0'
1<
1;
19
18
0>
0=
0<
0;
1>
1=
#580000
0!
03
#585000
1!
13
1C
14
0I
1F
16
15
1,
1'
09
08
1<
1;
0>
0=
#590000
0!
03
#595000
1!
13
1L
0J
0H
0E
0C
1?
0B
0:
07
04
0K
1>
1=
0<
0;
0F
0@
19
18
06
05
1(
0)
0*
0+
0,
1#
0$
0%
0&
0'
#600000
0!
03
#605000
1!
13
1C
14
1D
1@
16
15
1,
1'
#610000
0!
03
#615000
1!
13
1E
0C
17
04
09
08
06
05
1+
0,
1&
0'
19
18
#620000
0!
03
#625000
1!
13
1C
14
1G
1F
0D
16
15
1,
1'
09
08
#630000
0!
03
#635000
1!
13
1H
0E
0C
1:
07
04
1A
1<
1;
0F
0@
19
18
06
05
1*
0+
0,
1%
0&
0'
0A
0<
0;
#640000
0!
03
#645000
1!
13
1C
14
1K
0G
1@
16
15
1,
1'
1A
#650000
0!
03
#655000
1!
13
0L
0H
0?
0:
04
0K
0A
0@
06
05
0(
0*
0#
0%
0'
#660000
0!
03
#665000
1!
13
14
1D
1@
16
15
1'
#670000
0!
03
#675000
1!
13
1E
0C
17
04
09
08
06
05
1+
0,
1&
0'
19
18
#680000
0!
03
#685000
1!
13
1C
14
1G
1F
0D
16
15
1,
1'
09
08
#690000
0!
03
#695000
1!
13
1H
0E
0C
1:
07
04
1K
1<
1;
0F
0@
19
18
06
05
1*
0+
0,
1%
0&
0'
0<
0;
#700000
0!
03
#705000
1!
13
1C
14
0G
1@
16
15
1,
1'
#710000
0!
03
#715000
1!
13
1E
0C
17
04
09
08
06
05
1+
0,
1&
0'
1<
1;
19
18
0<
0;
#720000
0!
03
#725000
1!
13
1C
14
1I
1F
16
15
1,
1'
09
08
1<
1;
#730000
0!
03
#735000
1!
13
1J
0H
0E
0C
1B
0:
07
04
0>
0=
0K
0<
0;
0F
0@
19
18
06
05
1)
0*
0+
0,
1$
0%
0&
0'
1>
1=
#740000
0!
03
#745000
1!
13
1C
14
1@
16
15
1,
1'
#750000
0!
03
#755000
1!
13
1E
0C
17
04
09
08
06
05
1+
0,
1&
0'
19
18
#760000
0!
03
#765000
1!
13
1C
14
1F
16
15
1,
1'
09
08
#770000
0!
03
#775000
1!
13
1H
0E
0C
1:
07
04
1K
1<
1;
0F
0@
19
18
06
05
1*
0+
0,
1%
0&
0'
0>
0=
0<
0;
1>
1=
#780000
0!
03
#785000
1!
13
1C
14
1@
16
15
1,
1'
#790000
0!
03
#795000
1!
13
1E
0C
17
04
09
08
06
05
1+
0,
1&
0'
1<
1;
19
18
0>
0=
0<
0;
1>
1=
#800000
0!
03
#805000
1!
13
1C
14
0I
1F
16
15
1,
1'
09
08
1<
1;
0>
0=
#810000
0!
03
#815000
1!
13
1L
0J
0H
0E
0C
1?
0B
0:
07
04
0K
1>
1=
0<
0;
0F
0@
19
18
06
05
1(
0)
0*
0+
0,
1#
0$
0%
0&
0'
#820000
0!
03
#825000
1!
13
1C
14
1D
1@
16
15
1,
1'
#830000
0!
03
#835000
1!
13
1E
0C
17
04
09
08
06
05
1+
0,
1&
0'
19
18
#840000
0!
03
#845000
1!
13
1C
14
1G
1F
0D
16
15
1,
1'
09
08
#850000
0!
03
#855000
1!
13
1H
0E
0C
1:
07
04
1A
1<
1;
0F
0@
19
18
06
05
1*
0+
0,
1%
0&
0'
0A
0<
0;
#860000
0!
03
#865000
1!
13
1C
14
1K
0G
1@
16
15
1,
1'
1A
#870000
0!
03
#875000
1!
13
0L
0H
0?
0:
04
0K
0A
0@
06
05
0(
0*
0#
0%
0'
#880000
0!
03
#885000
1!
13
14
1D
1@
16
15
1'
#890000
0!
03
#895000
1!
13
1E
0C
17
04
09
08
06
05
1+
0,
1&
0'
19
18
#900000
0!
03
#905000
1!
13
1C
14
1G
1F
0D
16
15
1,
1'
09
08
#910000
0!
03
#915000
1!
13
1H
0E
0C
1:
07
04
1K
1<
1;
0F
0@
19
18
06
05
1*
0+
0,
1%
0&
0'
0<
0;
#920000
0!
03
#925000
1!
13
1C
14
0G
1@
16
15
1,
1'
#930000
0!
03
#935000
1!
13
1E
0C
17
04
09
08
06
05
1+
0,
1&
0'
1<
1;
19
18
0<
0;
#940000
0!
03
#945000
1!
13
1C
14
1I
1F
16
15
1,
1'
09
08
1<
1;
#950000
0!
03
#955000
1!
13
1J
0H
0E
0C
1B
0:
07
04
0>
0=
0K
0<
0;
0F
0@
19
18
06
05
1)
0*
0+
0,
1$
0%
0&
0'
1>
1=
#960000
0!
03
#965000
1!
13
1C
14
1@
16
15
1,
1'
#970000
0!
03
#975000
1!
13
1E
0C
17
04
09
08
06
05
1+
0,
1&
0'
19
18
#980000
0!
03
#985000
1!
13
1C
14
1F
16
15
1,
1'
09
08
#990000
0!
03
#995000
1!
13
1H
0E
0C
1:
07
04
1K
1<
1;
0F
0@
19
18
06
05
1*
0+
0,
1%
0&
0'
0>
0=
0<
0;
1>
1=
